52596.12	16129.85	1570	0	0	0
-851.5	-167.5	396.46	-90	0	-90
-710	-113	-295	114	138.5	1142
Joint	100	JRL020L2_HOME	0	54084.57	16297.35	2018.51	0	0	90	1	1	1	0	0	0	-160	0
Linear	100	215L240		1	54661.6		15424.15	2491.96	43.84	-44.21	-51.01	1	1	1	0	0	0	-160	12.87
Joint	50	215L240_1	0	54495.77	15767.5		1957.78	46.19	-16.91	-20.06	1	1	1	0	0	0	-151.37	0.77
Joint	100	JRL020L2_HOME	0	54084.57	16297.35	2018.51	0	0	90	1	1	1	0	0	0	-160	1.22
